task4/counter.vcd
$version Generated by VerilatedVcd $end
$date Sat Nov  5 16:08:36 2022 $end
$timescale 1ps $end

 $scope module TOP $end
  $var wire 12 ' bcd [11:0] $end
  $var wire  1 # clk $end
  $var wire  1 % en $end
  $var wire  1 $ rst $end
  $var wire  8 & v [7:0] $end
  $scope module top $end
   $var wire 32 * WIDTH [31:0] $end
   $var wire 12 ' bcd [11:0] $end
   $var wire  1 # clk $end
   $var wire  8 ( count [7:0] $end
   $var wire  1 % en $end
   $var wire  1 $ rst $end
   $var wire  8 & v [7:0] $end
   $scope module myCounter $end
    $var wire 32 * WIDTH [31:0] $end
    $var wire  1 # clk $end
    $var wire  8 ( count [7:0] $end
    $var wire  1 % en $end
    $var wire  1 $ rst $end
    $var wire  8 + v [7:0] $end
   $upscope $end
   $scope module myDecoder $end
    $var wire 12 ' BCD [11:0] $end
    $var wire 32 , i [31:0] $end
    $var wire 20 ) result [19:0] $end
    $var wire  8 ( x [7:0] $end
   $upscope $end
  $upscope $end
 $upscope $end
$enddefinitions $end


#0
1#
1$
0%
b00000011 &
b000000000000 '
b00000000 (
b00000000000000000000 )
b00000000000000000000000000001000 *
b00000000 +
b00000000000000000000000000001000 ,
#1
0#
#2
1#
0$
1%
#3
0#
#4
1#
#5
0#
#6
1#
#7
0#
#8
1#
0%
#9
0#
#10
1#
b000000000001 '
b00000001 (
b00000000000100000000 )
#11
0#
#12
1#
b000000000010 '
b00000010 (
b00000000001000000000 )
#13
0#
#14
1#
b000000000011 '
b00000011 (
b00000000001100000000 )
#15
0#
#16
1#
b000000000100 '
b00000100 (
b00000000010000000000 )
#17
0#
#18
1#
b000000000101 '
b00000101 (
b00000000010100000000 )
#19
0#
#20
1#
b000000000110 '
b00000110 (
b00000000011000000000 )
#21
0#
#22
1#
b000000000111 '
b00000111 (
b00000000011100000000 )
#23
0#
#24
1#
b000000001000 '
b00001000 (
b00000000100000000000 )
#25
0#
#26
1#
b000000001001 '
b00001001 (
b00000000100100000000 )
#27
0#
#28
1#
b000000010000 '
b00001010 (
b00000001000000000000 )
#29
0#
#30
1#
b000000010001 '
b00001011 (
b00000001000100000000 )
#31
0#
#32
1#
b000000010010 '
b00001100 (
b00000001001000000000 )
#33
0#
#34
1#
1%
b000000010011 '
b00001101 (
b00000001001100000000 )
#35
0#
#36
1#
b000000000000 '
b00000000 (
b00000000000000000000 )
